The CNS Missile and SLV Launch Databases — cns-missile-test-databases • data4ds4da
…
    An object of class tbl_df (inherits from tbl, data.frame) with 140 rows and 16 columns.

    Source

    https://www.nti.org/analysis/reports/cns-missile-and-slv-launch-databases/

    References

Created by The James Martin Center for Nonproliferation Studies for the Nuclear Threat Initiative

    Examples

# dprk ================================================================================
dprk_missile_tests_df
#> # A tibble: 140 x 16
#>    launch_time         missile_name missile_type launch_authority facility_name
#>    <dttm>              <chr>        <chr>        <chr>            <chr>        
#>  1 1984-04-08 16:00:00 Scud-B       SRBM         NA               Tonghae Sate…
#>  2 1984-04-08 16:00:00 Scud-B       SRBM         NA               Tonghae Sate…
#>  3 1984-04-08 16:00:00 Scud-B       SRBM         NA               Tonghae Sate…
#>  4 1984-08-31 17:00:00 Scud-B       SRBM         NA               Tonghae Sate…
#>  5 1984-08-31 17:00:00 Scud-B       SRBM         NA               Tonghae Sate…
#>  6 1984-08-31 17:00:00 Scud-B       SRBM         NA               Tonghae Sate…
#>  7 1986-04-30 17:00:00 NA           NA           NA               Tonghae Sate…
#>  8 1990-04-30 17:00:00 Nodong       MRBM         NA               Tonghae Sate…
#>  9 1990-05-31 17:00:00 Scud-C       SRBM         NA               Tonghae Sate…
#> 10 1991-06-30 17:00:00 Scud-C       SRBM         NA               Chihari Miss…
#> # … with 130 more rows, and 11 more variables: facility_location <chr>,
#> #   other_name <chr>, facility_latitude <chr>, facility_longitude <chr>,
#> #   landing_location <chr>, apogee_km <dbl>, distance_travelled_km <dbl>,
#> #   test_confirmed <lgl>, test_successful <lgl>, additional_information <chr>,
#> #   sources <chr>
…
# iran ================================================================================ 
iran_missile_tests_df
#> # A tibble: 138 x 14
#>    launch_time         missile_name facility_name facility_latitu…
#>    <dttm>              <chr>        <chr>         <chr>           
#>  1 1991-04-30 17:00:00 Shahab-2     NA            NA              
#>  2 1994-11-05 16:00:00 Shahab-1     Kermanshah A… 34.3458         
#>  3 1994-11-05 16:00:00 Shahab-1     Kermanshah A… 34.3458         
#>  4 1994-11-05 16:00:00 Shahab-1     Kermanshah A… 34.3458         
#>  5 1994-11-08 16:00:00 Shahab-1     Kermanshah A… 34.3458         
#>  6 1994-11-08 16:00:00 Shahab-1     Kermanshah A… 34.3458         
#>  7 1994-11-08 16:00:00 Shahab-1     Kermanshah A… 34.3458         
#>  8 1997-10-13 17:00:00 Shahab-2     NA            NA              
#>  9 1998-07-21 17:00:00 Shahab-3     NA            NA              
#> 10 1999-06-09 17:00:00 Shahab-1     Kermanshah A… 34.3458         
#> # … with 128 more rows, and 10 more variables: facility_longitude <chr>,
#> #   landing_location <chr>, apogee_km <dbl>, distance_travelled_km <dbl>,
#> #   test_confirmed <lgl>, test_successful <lgl>, additional_information <chr>,
#> #   sources <chr>, missile_family <chr>, in_operational_use <lgl>
…
# india ===============================================================================
india_missile_tests_df
#> # A tibble: 217 x 11
#>    launch_time         missile_name launch_authority facility_name
#>    <dttm>              <chr>        <chr>            <chr>        
#>  1 1979-08-09 17:00:00 SLV-3        ISRO             Satish Dhawa…
#>  2 1980-07-17 17:00:00 SLV-3        ISRO             Satish Dhawa…
#>  3 1981-05-30 17:00:00 SLV-3        ISRO             Satish Dhawa…
#>  4 1983-04-16 16:00:00 SLV-3        ISRO             Satish Dhawa…
#>  5 1987-03-23 16:00:00 ASLV         ISRO             Satish Dhawa…
#>  6 1988-02-24 16:00:00 Prithvi      IDRDL            Satish Dhawa…
#>  7 1988-07-12 17:00:00 ASLV         ISRO             Satish Dhawa…
#>  8 1989-05-21 17:00:00 Agni-TD      IDRDL            Integrated T…
#>  9 1989-09-26 17:00:00 Prithvi      IDRDL            Satish Dhawa…
#> 10 1991-02-10 16:00:00 Prithvi      IDRDL            Satish Dhawa…
#> # … with 207 more rows, and 7 more variables: landing_location <chr>,
#> #   apogee_km <dbl>, distance_travelled_km <dbl>, test_confirmed <lgl>,
#> #   test_successful <lgl>, additional_information <chr>, sources <chr>
…
# pakistan ============================================================================
pakistan_missile_tests_df
#> # A tibble: 95 x 11
#>    launch_time         missile_name launch_authority facility_name
#>    <dttm>              <chr>        <chr>            <chr>        
#>  1 1989-01-31 16:00:00 Hatf-1       SUPA             Sonmiani Ter…
#>  2 1989-01-31 16:00:00 Hatf-2       SUPARCO          Sonmiani Ter…
#>  3 1989-03-31 16:00:00 Hatf-1       NA               Unknown (3)  
#>  4 1991-12-31 16:00:00 Hatf-1       NA               Unknown (3)  
#>  5 1997-06-30 17:00:00 Ghaznavi     SUPARCO          Unknown (3)  
#>  6 1998-04-05 17:00:00 Ghauri-1     KRL              Tilla Satell…
#>  7 1999-01-14 16:00:00 Shaheen-1    PAEC             Sonmiani Ter…
#>  8 1999-04-13 17:00:00 Ghauri-2     KRL              Tilla Satell…
#>  9 1999-04-14 17:00:00 Shaheen-1    PAEC             Sonmiani Ter…
#> 10 2000-01-31 16:00:00 Hatf-1       PK               Sonmiani Ter…
#> # … with 85 more rows, and 7 more variables: landing_location <chr>,
#> #   apogee_km <dbl>, distance_travelled_km <dbl>, test_confirmed <lgl>,
#> #   test_successful <lgl>, additional_information <chr>, sources <chr>
…
