The CNS North Korea Missile Test Database — dprk_missile_tests_df • data4ds4da
…
    An object of class tbl_df (inherits from tbl, data.frame) with 140 rows and 18 columns.

    Source

    https://www.nti.org/analysis/articles/cns-north-korea-missile-test-database/

    References

Created by The James Martin Center for Nonproliferation Studies for the Nuclear Threat Initiative

    Examples

dprk_missile_tests_df
#> # A tibble: 140 x 18
#>    date       date_entered_up… launch_time_utc     missile_name missile_type
#>    <date>     <date>           <dttm>              <chr>        <chr>       
#>  1 1984-04-09 2016-12-23       NA                  Scud-B       SRBM        
#>  2 1984-04-09 2016-12-23       NA                  Scud-B       SRBM        
#>  3 1984-04-09 2016-12-23       NA                  Scud-B       SRBM        
#>  4 1984-09-01 2016-12-23       NA                  Scud-B       SRBM        
#>  5 1984-09-01 2016-12-23       NA                  Scud-B       SRBM        
#>  6 1984-09-01 2016-12-23       NA                  Scud-B       SRBM        
#>  7 1986-05-01 2016-12-23       NA                  NA           NA          
#>  8 1990-05-01 2016-12-23       NA                  Nodong       MRBM        
#>  9 1990-06-01 2016-12-23       NA                  Scud-C       SRBM        
#> 10 1991-07-01 2016-12-23       NA                  Scud-C       SRBM        
#> # … with 130 more rows, and 13 more variables: launch_agency_authority <chr>,
#> #   facility_name <chr>, facility_location <chr>, other_name <chr>,
#> #   facility_latitude <dbl>, facility_longitude <dbl>, landing_location <chr>,
#> #   apogee_km <dbl>, distance_travelled_km <dbl>, confirmed <lgl>,
#> #   success <lgl>, additional_information <chr>, sources <chr>
…
