Nuclear Cooperation Agreement (NCA) Dataset — nca_df • data4ds4da
…
    An object of class tbl_df (inherits from tbl, data.frame) with 3152 rows and 7 columns.

    Source

    http://www.matthewfuhrmann.com/datasets.html

    References

Fuhrmann, Matthew. 2012. Atomic Assistance: How "Atoms for Peace" Programs Cause Nuclear Insecurity. Ithaca, NY: Cornell University Press.

    Examples

nca_df
#> # A tibble: 3,152 x 7
#>    ccode1 ccode2 country1 country2       year   nca nca_type                    
#>     <dbl>  <dbl> <chr>    <chr>         <dbl> <dbl> <chr>                       
#>  1      2     20 USA      Canada         1955     1 comprehensive power, restri…
#>  2      2     20 USA      Canada         1969     1 intangibles                 
#>  3      2     20 USA      Canada         1987     1 intangibles                 
#>  4      2     20 USA      Canada         1987     1 intangibles                 
#>  5      2     20 USA      Canada         1988     1 intangibles                 
#>  6      2     40 USA      Cuba           1956     1 research                    
#>  7      2     42 USA      Dominican Rep  1956     1 research                    
#>  8      2     70 USA      Mexico         1965     1 nuclear safety              
#>  9      2     70 USA      Mexico         1969     1 intangibles                 
#> 10      2     70 USA      Mexico         1980     1 nuclear safety              
#> # … with 3,142 more rows
…
