Nuclear Latency (NL) Dataset — nl_1.2_df • data4ds4da
…
    An object of class tbl_df (inherits from tbl, data.frame) with 253 rows and 20 columns.

    Source

    http://www.matthewfuhrmann.com/datasets.html

    References

Fuhrmann, Matthew and Benjamin Tkach. 2015. "Almost Nuclear: Introducing the Nuclear Latency Dataset." Conflict Management and Peace Science 32 (4): 443-461.

    Examples

nl_1.2_df
#> # A tibble: 253 x 20
#>    country_name ccode facility_name facility_ambigu… enr_type size 
#>    <chr>        <dbl> <chr>         <lgl>            <chr>    <chr>
#>  1 Algeria        615 Hot cell fac… FALSE            reproce… labo…
#>  2 Argentina      160 Ezeiza – SF … FALSE            reproce… labo…
#>  3 Argentina      160 Ezeiza II – … NA               reproce… pilot
#>  4 Argentina      160 Pilcaniyeu E… FALSE            gaseous… pilot
#>  5 Argentina      160 Pilcaniyeu E… NA               gaseous… pilot
#>  6 Australia      900 Lucas Heights FALSE            centrif… labo…
#>  7 Australia      900 Silex Laser … FALSE            laser    labo…
#>  8 Belgium        211 Mol, Purex R… FALSE            reproce… pilot
#>  9 Brazil         140 Aerospace Te… FALSE            laser    labo…
#> 10 Brazil         140 BRF Enrichme… FALSE            centrif… pilot
#> # … with 243 more rows, and 14 more variables: construction_start <dbl>,
#> #   construction_end <dbl>, operation_start <dbl>, operation_end <dbl>,
#> #   operation2_start <dbl>, operation2_end <dbl>, covert <lgl>, iaea <lgl>,
#> #   regional <lgl>, military <lgl>, military_ambiguity <lgl>,
#> #   multinational <lgl>, foreign_assistance <lgl>,
#> #   foreign_assistance_ambiguity <lgl>
…
