UCDP Georeferenced Event Dataset (GED) Global version 19.1 — ucdp_19.1_df • data4ds4da
…
    Source

    https://ucdp.uu.se/downloads/index.html#ged_global/

    References

Sundberg, Ralph, and Erik Melander, 2013, “Introducing the UCDP Georeferenced Event Dataset”, Journal of Peace Research, vol.50, no.4, 523-532

Högbladh Stina, 2019, “UCDP GED Codebook version 19.1”, Department of Peace and Conflict Research, Uppsala University

    Examples

ucdp_19.1_df
#> # A tibble: 152,616 x 42
#>        id  year active_year type_of_violence conflict_new_id conflict_name
#>     <dbl> <dbl>       <dbl>            <dbl>           <dbl> <chr>        
#>  1  67972  2013           1                1           11347 Mali: Govern…
#>  2  23385  2004           1                3             583 FNI - Civili…
#>  3  24255  2007           0                2            4600 CNDP - PARECO
#>  4  82612  2008           1                1             364 India: Kashm…
#>  5  82645  2008           1                1             364 India: Kashm…
#>  6 158618  2011           1                1             354 Turkey: Kurd…
#>  7  87396  1997           0                3             523 ULFA - Civil…
#>  8  60774  2013           1                1             283 DR Congo (Za…
#>  9  25360  2010           1                1             337 Somalia: Gov…
#> 10  11995  2003           1                1             288 Chad: Govern…
#> # … with 152,606 more rows, and 36 more variables: dyad_new_id <dbl>,
#> #   dyad_name <chr>, side_a_new_id <dbl>, gwnoa <dbl>, side_a <chr>,
#> #   side_b_new_id <dbl>, gwnob <dbl>, side_b <chr>, number_of_sources <dbl>,
#> #   source_article <chr>, source_office <chr>, source_date <chr>,
#> #   source_headline <chr>, source_original <chr>, where_prec <dbl>,
#> #   where_coordinates <chr>, adm_1 <chr>, adm_2 <chr>, latitude <dbl>,
#> #   longitude <dbl>, geom_wkt <chr>, priogrid_gid <dbl>, country <chr>,
#> #   country_id <dbl>, region <chr>, event_clarity <dbl>, date_prec <dbl>,
#> #   date_start <date>, date_end <date>, deaths_a <dbl>, deaths_b <dbl>,
…
