UCDP Georeferenced Event Dataset (GED) Syria 20160101-20191130 (652.1601.1911) — ucdp_syria_df • data4ds4da
…
    Source

    https://ucdp.uu.se/downloads/index.html#ged_global/

    References

Sundberg, Ralph, and Erik Melander, 2013, “Introducing the UCDP Georeferenced Event Dataset”, Journal of Peace Research, vol.50, no.4, 523-532

Högbladh Stina, 2019, “UCDP GED Codebook version 19.1”, Department of Peace and Conflict Research, Uppsala University

    Examples

ucdp_syria_df
#> # A tibble: 16,566 x 41
#>        id  year active_year type_of_violence conflict_new_id conflict_name
#>     <dbl> <dbl>       <dbl>            <dbl>           <dbl> <chr>        
#>  1 214797  2016           1                1             299 Syria: Gover…
#>  2 214804  2016           1                1             299 Syria: Gover…
#>  3 214808  2016           1                1             299 Syria: Gover…
#>  4 214811  2016           1                1             299 Syria: Gover…
#>  5 214814  2016           1                2           13935 Ahrar al-Sha…
#>  6 214817  2016           1                2           13935 Ahrar al-Sha…
#>  7 214825  2016           1                1             299 Syria: Gover…
#>  8 214828  2016           1                1             299 Syria: Gover…
#>  9 214831  2016           1                1             299 Syria: Gover…
#> 10 214858  2016           1                1             299 Syria: Gover…
#> # … with 16,556 more rows, and 35 more variables: dyad_new_id <dbl>,
#> #   dyad_name <chr>, side_a_new_id <dbl>, side_a <chr>, side_b_new_id <dbl>,
#> #   gwnob <dbl>, side_b <chr>, number_of_sources <dbl>, source_article <chr>,
#> #   source_office <chr>, source_date <chr>, source_headline <chr>,
#> #   source_original <chr>, where_prec <dbl>, where_coordinates <chr>,
#> #   adm_1 <chr>, adm_2 <chr>, latitude <dbl>, longitude <dbl>, geom_wkt <chr>,
#> #   priogrid_gid <dbl>, country <chr>, country_id <dbl>, region <chr>,
#> #   event_clarity <dbl>, date_prec <dbl>, date_start <date>, date_end <date>,
#> #   deaths_a <dbl>, deaths_b <dbl>, deaths_civilians <dbl>,
…
