Spaniel and Smith's 𝜈-CLEAR Dataset — v_clear_df • data4ds4da
…
    An object of class tbl_df (inherits from tbl, data.frame) with 8086 rows and 20 columns.

    Source

    https://williamspaniel.com/papers/nuclear/

    References

Smith, Bradley & Spaniel, William. (2018). Introducing ν-CLEAR: a latent variable approach to measuring nuclear proficiency. Conflict Management and Peace Science. 073889421774161. 10.1177/0738894217741619.

    Examples

v_clear_df
#> # A tibble: 8,086 x 20
#>       id ccode country_name  year uranium_possess… metallurgical_c…
#>    <int> <int> <chr>        <int> <lgl>            <lgl>           
#>  1 21938     2 United Stat…  1938 TRUE             TRUE            
#>  2 21939     2 United Stat…  1939 TRUE             TRUE            
#>  3 21940     2 United Stat…  1940 TRUE             TRUE            
#>  4 21941     2 United Stat…  1941 TRUE             TRUE            
#>  5 21942     2 United Stat…  1942 TRUE             TRUE            
#>  6 21943     2 United Stat…  1943 TRUE             TRUE            
#>  7 21944     2 United Stat…  1944 TRUE             TRUE            
#>  8 21945     2 United Stat…  1945 TRUE             TRUE            
#>  9 21946     2 United Stat…  1946 TRUE             TRUE            
#> 10 21947     2 United Stat…  1947 TRUE             TRUE            
#> # … with 8,076 more rows, and 14 more variables: chemical_capability <lgl>,
#> #   nitric_production <lgl>, electricity_production <lgl>,
#> #   nuclear_engineering <lgl>, explosive_production <lgl>,
#> #   non_heavy_water_reactor <lgl>, heavy_water_reactor <lgl>,
#> #   nuclear_test <lgl>, reprocessing <lgl>, uranium_enrichment <lgl>,
#> #   submarines <lgl>, weapons_exploration <lgl>, weapons_pursuit <lgl>,
#> #   nuclear_weapons <lgl>
…
